<?xml version="1.0" encoding="utf-8"?>
<!-- Generator: Adobe Illustrator 16.2.1, SVG Export Plug-In . SVG Version: 6.00 Build 0)  -->
<!DOCTYPE svg PUBLIC "-//W3C//DTD SVG 1.1//EN" "http://www.w3.org/Graphics/SVG/1.1/DTD/svg11.dtd">
<svg version="1.1" id="Layer_1" xmlns="http://www.w3.org/2000/svg" xmlns:xlink="http://www.w3.org/1999/xlink" x="0px" y="0px"
	 width="512px" height="512px" viewBox="0 0 512 512" style="enable-background:new 0 0 512 512;" xml:space="preserve">
<g>
	<path fill="#39312e" d="M442.8,99.6l-30.4-30.4c-7-6.9-18.2-6.9-25.1,0L355.5,101l55.5,55.5l31.8-31.7C449.7,117.7,449.7,106.5,442.8,99.6z"/>
	<g>
		<polygon fill="#39312e" points="346.1,110.5 174.1,288 160,352 224,337.9 400.6,164.9"/>
	</g>
	<path fill="#faa419" d="M384,256v150c0,5.1-3.9,10.1-9.2,10.1s-269-0.1-269-0.1c-5.6,0-9.8-5.4-9.8-10s0-268,0-268c0-5,4.7-10,10.6-10H256l32-32
		H87.4c-13,0-23.4,10.3-23.4,23.3v305.3c0,12.9,10.5,23.4,23.4,23.4h305.3c12.9,0,23.3-10.5,23.3-23.4V224L384,256z"/>
</g>
</svg>
