<?xml version="1.0" encoding="utf-8"?>
<!-- Generator: Adobe Illustrator 22.1.0, SVG Export Plug-In . SVG Version: 6.00 Build 0)  -->
<svg version="1.1" xmlns="http://www.w3.org/2000/svg" xmlns:xlink="http://www.w3.org/1999/xlink" x="0px" y="0px"
	 viewBox="0 0 600 180" enable-background="new 0 0 600 180" xml:space="preserve">
<g id="bg" display="none">
	<rect display="inline" fill="#766C5A" width="600" height="180"/>
</g>
<g id="logo">
	<path fill="#95C9DF" d="M90.4,53.3c-0.9,1.5-1.9,2.6-2.9,3.3c-1,0.7-2.3,1.1-3.9,1.1c-1.4,0-2.9-0.4-4.6-1.3
		c-1.6-0.9-3.5-1.9-5.5-3c-2.1-1.1-4.4-2.1-7.1-3c-2.6-0.9-5.7-1.3-9-1.3c-5.8,0-10.2,1.2-13,3.7c-2.9,2.5-4.3,5.9-4.3,10.1
		c0,2.7,0.9,4.9,2.6,6.7c1.7,1.8,4,3.3,6.8,4.6c2.8,1.3,6,2.5,9.6,3.5c3.6,1.1,7.3,2.3,11,3.6c3.7,1.3,7.4,2.9,11,4.7
		c3.6,1.8,6.8,4.1,9.6,6.8c2.8,2.8,5.1,6.1,6.8,10.1c1.7,4,2.6,8.7,2.6,14.3c0,6.2-1.1,12-3.2,17.4c-2.2,5.4-5.3,10.1-9.4,14.1
		c-4.1,4-9.1,7.2-15.1,9.5c-6,2.3-12.8,3.5-20.4,3.5c-4.2,0-8.4-0.4-12.8-1.3c-4.3-0.9-8.5-2.1-12.6-3.6c-4.1-1.6-7.9-3.4-11.4-5.6
		c-3.6-2.1-6.7-4.5-9.3-7.2l9.2-14.6c0.7-1.1,1.6-2,2.9-2.7c1.2-0.7,2.5-1,4-1c1.8,0,3.7,0.6,5.6,1.8c1.9,1.2,4,2.5,6.4,3.9
		c2.4,1.4,5.1,2.7,8.2,3.9c3.1,1.2,6.7,1.8,10.9,1.8c5.7,0,10-1.2,13.2-3.7c3.1-2.5,4.7-6.4,4.7-11.8c0-3.1-0.9-5.7-2.6-7.6
		c-1.7-2-4-3.6-6.8-4.9c-2.8-1.3-6-2.4-9.5-3.4c-3.6-1-7.2-2.1-11-3.3c-3.7-1.2-7.4-2.7-11-4.4c-3.6-1.8-6.7-4.1-9.5-6.9
		c-2.8-2.9-5.1-6.4-6.8-10.7c-1.7-4.3-2.6-9.5-2.6-15.8c0-5,1-10,3-14.7c2-4.8,5-9.1,8.9-12.8c3.9-3.7,8.8-6.7,14.5-9
		c5.7-2.2,12.3-3.4,19.6-3.4c4.1,0,8.1,0.3,12,1c3.9,0.6,7.6,1.6,11.1,2.9c3.5,1.3,6.8,2.8,9.8,4.5c3,1.8,5.8,3.7,8.2,5.9L90.4,53.3
		z"/>
	<path fill="#95C9DF" d="M239.9,22.3v77.3h4.2c1.8,0,3.1-0.2,4.1-0.7c1-0.5,1.9-1.4,2.7-2.7L269,69.3c1-1.6,2.3-2.8,3.7-3.5
		c1.4-0.7,3.3-1.1,5.5-1.1h26.2l-24.7,34c-1.2,1.6-2.4,3-3.8,4.2c-1.4,1.2-2.9,2.3-4.5,3.3c2.8,2.1,5.2,4.9,7.2,8.3l26.9,45.7h-25.8
		c-2.2,0-4-0.4-5.6-1.1c-1.6-0.7-2.8-1.9-3.8-3.7l-18.1-33.8c-0.9-1.5-1.8-2.5-2.7-3c-0.9-0.5-2.3-0.7-4.1-0.7h-5.5v42.3h-28.6v-138
		H239.9z"/>
	<path fill="#95C9DF" d="M364.9,160.3h-26l-37.1-95.6h23.8c2,0,3.7,0.5,5.1,1.4c1.4,1,2.3,2.1,2.8,3.5l13.3,42.9c1,3.5,2,6.9,3,10.2
		c1,3.3,1.8,6.6,2.4,10c0.7-3.3,1.5-6.6,2.5-10c1-3.3,2-6.7,3.1-10.2l13.8-42.9c0.5-1.4,1.4-2.6,2.8-3.5c1.3-1,2.9-1.4,4.8-1.4h22.7
		L364.9,160.3z"/>
	<path fill="#95C9DF" d="M441.2,38.5c0,2.3-0.5,4.4-1.4,6.4c-0.9,2-2.2,3.7-3.8,5.3c-1.6,1.5-3.5,2.7-5.6,3.6
		c-2.1,0.9-4.4,1.3-6.8,1.3c-2.3,0-4.5-0.4-6.5-1.3c-2-0.9-3.8-2.1-5.4-3.6c-1.6-1.5-2.8-3.3-3.7-5.3c-0.9-2-1.3-4.1-1.3-6.4
		c0-2.3,0.4-4.5,1.3-6.5c0.9-2,2.1-3.8,3.7-5.3c1.6-1.5,3.4-2.7,5.4-3.6c2-0.9,4.2-1.3,6.5-1.3c2.4,0,4.7,0.4,6.8,1.3
		c2.1,0.9,4,2.1,5.6,3.6c1.6,1.5,2.9,3.3,3.8,5.3C440.7,34,441.2,36.2,441.2,38.5z M437.8,64.7v95.6h-28.6V64.7H437.8z"/>
	<path fill="#95C9DF" d="M513.8,85.6c-0.7,1.2-1.5,2-2.3,2.5c-0.8,0.5-1.9,0.7-3.2,0.7c-1.4,0-2.7-0.3-4.1-0.9
		c-1.4-0.6-2.8-1.2-4.4-1.9c-1.6-0.7-3.3-1.3-5.3-1.9c-2-0.6-4.2-0.9-6.7-0.9c-3.6,0-6.4,0.7-8.3,2.1c-1.9,1.4-2.9,3.3-2.9,5.8
		c0,1.8,0.6,3.3,1.9,4.4c1.3,1.2,2.9,2.2,5,3.1c2.1,0.9,4.5,1.7,7.1,2.5c2.6,0.8,5.3,1.7,8.1,2.7c2.8,1,5.5,2.1,8.1,3.5
		c2.6,1.3,5,2.9,7.1,4.9c2.1,1.9,3.8,4.3,5,7.1c1.3,2.8,1.9,6.1,1.9,10c0,4.7-0.9,9.1-2.6,13.1c-1.7,4-4.3,7.4-7.7,10.3
		c-3.4,2.9-7.6,5.1-12.6,6.7c-5,1.6-10.8,2.4-17.3,2.4c-3.3,0-6.5-0.3-9.8-0.9c-3.3-0.6-6.4-1.4-9.4-2.5c-3-1-5.9-2.3-8.4-3.7
		c-2.6-1.4-4.8-3-6.6-4.7l6.6-10.5c0.8-1.2,1.8-2.2,2.9-2.9c1.1-0.7,2.5-1.1,4.3-1.1c1.7,0,3.1,0.4,4.5,1.1s2.7,1.5,4.3,2.4
		c1.5,0.9,3.3,1.7,5.4,2.4c2.1,0.7,4.7,1.1,7.8,1.1c2.2,0,4.1-0.2,5.6-0.7c1.5-0.5,2.8-1.1,3.7-1.9c0.9-0.8,1.6-1.7,2-2.7
		c0.4-1,0.6-2,0.6-3c0-1.9-0.6-3.5-1.9-4.7c-1.3-1.2-3-2.3-5.1-3.2c-2.1-0.9-4.5-1.7-7.1-2.5c-2.7-0.8-5.4-1.6-8.2-2.6
		c-2.8-1-5.5-2.2-8.2-3.5c-2.7-1.4-5.1-3.1-7.1-5.3c-2.1-2.1-3.8-4.7-5.1-7.8c-1.3-3.1-1.9-6.8-1.9-11.2c0-4.1,0.8-7.9,2.3-11.6
		c1.6-3.7,3.9-6.9,7.1-9.6c3.1-2.8,7.1-5,11.8-6.6c4.7-1.6,10.3-2.4,16.6-2.4c3.4,0,6.8,0.3,10,0.9c3.2,0.6,6.3,1.5,9.1,2.6
		c2.8,1.1,5.4,2.4,7.7,3.9c2.3,1.5,4.4,3.1,6.2,4.9L513.8,85.6z"/>
	<path fill="#95C9DF" d="M564.5,161.8c-4.5,0-8.6-0.7-12-2c-3.5-1.3-6.4-3.2-8.8-5.6c-2.4-2.4-4.2-5.4-5.4-8.8
		c-1.2-3.4-1.8-7.3-1.8-11.5V84.4h-8.1c-1.5,0-2.7-0.5-3.8-1.4c-1-1-1.6-2.3-1.6-4.2V67.7l15.2-2.9l5.6-23.3
		c0.7-2.9,2.8-4.4,6.3-4.4H565v27.9h23.2v19.5H565v47.5c0,2.2,0.5,4,1.6,5.5c1.1,1.4,2.6,2.2,4.7,2.2c1,0,1.9-0.1,2.6-0.3
		c0.7-0.2,1.3-0.5,1.8-0.7c0.5-0.3,1-0.5,1.5-0.7c0.5-0.2,1-0.3,1.6-0.3c0.9,0,1.6,0.2,2.1,0.6c0.5,0.4,1.1,1,1.6,1.9l8.7,13.5
		c-3.7,2.8-7.8,4.8-12.4,6.2C574.2,161.1,569.4,161.8,564.5,161.8z"/>
	<g>
		<path fill="#F1D866" d="M202.2,110.5c-2.4-11.7-5.9-21.2-14.2-30c-7.1-7.5-17.5-11.4-27.4-13.5c-8.9-1.9-17.8-2-26.4,1.5
			c-9.8,3.9-16.3,12.8-22.1,21.2c-12.4,17.8-12.9,44.2,4.2,59.4c7.7,6.8,17.1,12.7,27.7,12.6c8.4,0,17.4,0.3,25.7-1.4
			C191.8,155.6,206.8,132.7,202.2,110.5z M157.7,133.5l0.1,0.3c-0.8-0.6-3.2,0.1-4.4,0.1c-2.8,0.1-5.9,0.5-8.6-0.3
			c-12.1-3.8-15.3-17.5-8.3-27.4c4-5.6,8.9-9,16-8.1c6.3,0.9,12.4,3.9,15.3,9.8C172.8,117.7,169.5,131,157.7,133.5z"/>
		<path fill="#F1D866" d="M139.5,53.9c0.2,1.5-0.9,2.4-2.9,3.3c-2,0.9-4.1,1-4.4,0c-2.5-8.2-5.3-11.5-5.3-11.5
			c-0.7-1.7,0.9-2.4,2.9-3.3c2-0.9,4.8-0.8,5.2,0.1C138.3,49.6,139.5,53.9,139.5,53.9"/>
		<path fill="#F1D866" d="M121.3,63.6c0.8,0.8,0.1,2.7-1.5,4.2c-1.6,1.6-3.6,2.3-4.3,1.4c-4.6-6.1-5.5-6.1-9.6-9.8
			c-1.6-1.3-0.5-3.6,1.1-5.2c1.6-1.6,5.2-2.5,5.7-1.5C116.5,59.2,121.3,63.6,121.3,63.6"/>
		<path fill="#F1D866" d="M185.9,65.7c-0.7,0.9-2.7,0.6-4.5-0.7c-1.8-1.3-2.7-3.1-2.1-4c0,0,3-6.4,7.8-12.1c0.7-0.9,2.7-0.9,4.5,0.4
			c1.8,1.3,3.8,4.4,2.9,5.1C189.5,59,185.9,65.7,185.9,65.7z"/>
		<path fill="#F1D866" d="M163.8,53.3c0,1.1-1.9,1.9-4.2,1.8c-2.2-0.2-3.7-1.2-3.9-2.4c-0.6-4.4-1.1-5.2,0.1-14.8
			c0.2-1.4,2.8-2.2,5.1-2c2.2,0.2,4.3,1.6,4.3,2.8C165,45.4,163.6,47.7,163.8,53.3z"/>
	</g>
</g>
</svg>
