<?xml version="1.0" encoding="utf-8"?>
<!-- Generator: Adobe Illustrator 16.2.1, SVG Export Plug-In . SVG Version: 6.00 Build 0)  -->
<!DOCTYPE svg PUBLIC "-//W3C//DTD SVG 1.1//EN" "http://www.w3.org/Graphics/SVG/1.1/DTD/svg11.dtd">
<svg version="1.1" id="Layer_1" xmlns="http://www.w3.org/2000/svg" xmlns:xlink="http://www.w3.org/1999/xlink" x="0px" y="0px"
	 width="512px" height="512px" viewBox="0 0 512 512" style="enable-background:new 0 0 512 512;" xml:space="preserve">
<g>
	<g>
		<path fill="#FADF63" class="st0" d="M403.1,108.9c-81.2-81.2-212.9-81.2-294.2,0s-81.2,212.9,0,294.2c81.2,81.2,212.9,81.2,294.2,0
			S484.3,190.1,403.1,108.9z M390.8,390.8c-74.3,74.3-195.3,74.3-269.6,0c-74.3-74.3-74.3-195.3,0-269.6s195.3-74.3,269.6,0
			C465.2,195.5,465.2,316.5,390.8,390.8z"/>
	</g>
	<polygon fill="#FADF63" class="st0" points="340.2,160 255.8,244.2 171.8,160.4 160,172.2 244,256 160,339.8 171.8,351.6 255.8,267.8 340.2,352 
		352,340.2 267.6,256 352,171.8 	"/>
</g>
</svg>
