<?xml version="1.0" encoding="utf-8"?>
<!-- Generator: Adobe Illustrator 18.1.1, SVG Export Plug-In . SVG Version: 6.00 Build 0)  -->
<svg version="1.1" xmlns="http://www.w3.org/2000/svg" xmlns:xlink="http://www.w3.org/1999/xlink" x="0px" y="0px" width="400px"
	 height="240px" viewBox="0 0 400 240" enable-background="new 0 0 400 240" xml:space="preserve">
<g id="sokvist">
	<g>
		<path fill="#39312e" d="M16.4,208.9c1.1-1.4,3.2-1.7,4.8-0.4c4.8,3.5,12.4,8,21.1,8c5.4,0,10-1.7,13.1-4.2
			c3.4-2.3,5.2-5.4,5.2-8.5c-0.1-3.2-1.4-5.5-4.9-8.5c-3-2.3-7.9-3.9-14.6-5.1l-0.3-0.1c-6.2-1.1-11.7-2.5-15.6-5.4
			c-4.4-2.5-7.5-7-7.5-12.4c0-5.5,3.1-10.3,7.5-13.5c4.1-2.8,9.9-4.6,16.9-4.6c8.9,0,15.2,4.1,20.6,7.5c1.5,1.1,2,3.2,1,4.8
			c-1,1.5-3.1,2-4.6,1c-5.1-3.4-10.1-6.9-16.9-6.9c-5.6,0-10.1,1.5-13.1,3.9c-2.8,2.3-4.4,5.1-4.4,7.9c0,2.8,1.3,4.8,3.9,6.9
			c3.1,2.1,7.7,3.8,14.1,4.8h0.3c6.6,1,12,3,16.8,5.6c4.5,3,7.7,8.3,7.7,14.1c0,5.8-3.2,10.4-7.9,13.9c-4.8,3.5-10.4,5.5-17.2,5.5
			c-11.1-0.1-19.9-5.4-25.5-9.9C15.5,212.1,15.3,210.3,16.4,208.9z"/>
		<path fill="#39312e" d="M105.9,154.2c18.2,0,32.7,15.8,32.7,34.5c0,18.7-14.5,34.5-32.7,34.5c-18,0-32.7-15.8-32.7-34.5
			C73.2,170,87.9,154.2,105.9,154.2z M105.9,216.5c14.1,0,25.9-12.4,25.9-27.7c0-15.4-11.8-27.9-25.9-27.9
			c-14.1,0-25.9,12.5-25.9,27.9C80,204.1,91.8,216.5,105.9,216.5z"/>
		<path fill="#39312e" d="M150.4,128c0-1.8,1.5-3.4,3.4-3.4c2,0,3.5,1.5,3.5,3.4v66.3l40.8-40.7c1.4-1.4,3.4-1.4,4.8,0
			c1.4,1.3,1.4,3.4,0,4.8l-26.6,26.6l26.8,32.5c1.3,1.5,1.1,3.5-0.3,4.9c-0.7,0.6-1.5,0.7-2.3,0.7c-1,0-2.1-0.3-2.7-1.3l-26.5-32
			l-14.1,14.1v15.8c0,1.8-1.5,3.4-3.5,3.4c-1.8,0-3.4-1.5-3.4-3.4V128z"/>
		<path fill="#39312e" d="M234.5,222.7c-0.4-0.4-0.8-0.8-1.1-1.5l-25.9-61.7c-0.7-1.7,0.1-3.7,1.7-4.4c1.7-0.7,3.8,0.1,4.4,1.8
			l23,54.4l23-54.4c0.6-1.7,2.7-2.5,4.4-1.8c1.7,0.7,2.4,2.7,1.7,4.4l-25.8,61.1c-0.1,0.6-0.4,1.1-0.8,1.7c-0.6,0.7-1.5,1-2.3,1
			c-0.4,0-0.7,0-1.1-0.1c-0.1,0-0.1,0-0.3-0.1C234.9,222.9,234.8,222.8,234.5,222.7z"/>
		<path fill="#39312e" d="M280.4,135.1c0-1.8,1.5-3.4,3.4-3.4c2,0,3.5,1.5,3.5,3.4v3.2c0,2-1.5,3.7-3.5,3.7c-1.8,0-3.4-1.7-3.4-3.7
			V135.1z M280.4,157.6c0-2,1.5-3.4,3.4-3.4c2,0,3.5,1.4,3.5,3.4v62.3c0,1.8-1.5,3.4-3.5,3.4c-1.8,0-3.4-1.5-3.4-3.4V157.6z"/>
		<path fill="#39312e" d="M301,208.9c1.1-1.4,3.2-1.7,4.8-0.4c4.8,3.5,12.4,8,21.1,8c5.4,0,10-1.7,13.1-4.2c3.4-2.3,5.2-5.4,5.2-8.5
			c-0.1-3.2-1.4-5.5-4.9-8.5c-3-2.3-7.9-3.9-14.6-5.1l-0.3-0.1c-6.2-1.1-11.7-2.5-15.6-5.4c-4.4-2.5-7.5-7-7.5-12.4
			c0-5.5,3.1-10.3,7.5-13.5c4.1-2.8,9.9-4.6,16.9-4.6c8.9,0,15.2,4.1,20.6,7.5c1.5,1.1,2,3.2,1,4.8c-1,1.5-3.1,2-4.6,1
			c-5.1-3.4-10.1-6.9-16.9-6.9c-5.6,0-10.1,1.5-13.1,3.9c-2.8,2.3-4.4,5.1-4.4,7.9c0,2.8,1.3,4.8,3.9,6.9c3.1,2.1,7.7,3.8,14.1,4.8
			h0.3c6.6,1,12,3,16.8,5.6c4.5,3,7.7,8.3,7.7,14.1c0,5.8-3.2,10.4-7.9,13.9c-4.8,3.5-10.4,5.5-17.2,5.5
			c-11.1-0.1-19.9-5.4-25.5-9.9C300,212.1,299.8,210.3,301,208.9z"/>
		<path fill="#39312e" d="M387.2,157.6c0,1.7-1.7,3.4-3.4,3.4h-8.9v50.3c0,3.4,3.4,5.1,5.1,5.1s3.5,1.8,3.5,3.5
			c0,1.7-1.8,3.4-3.5,3.4c-6.9,0-12.1-5.1-12.1-12V161h-8.6c-3.4,0-3.4-1.7-3.4-3.4s0-3.4,3.4-3.4h8.6v-25.6c0-1.7,1.7-3.4,3.4-3.4
			c1.8,0,3.7,1.7,3.7,3.4v25.6h8.9C385.5,154.2,387.2,155.9,387.2,157.6z"/>
	</g>
</g>
<g id="Eye">
	<path fill="#FAA419" d="M112.1,51.7c-5.7,0.8-11,2-16,3.5c-3.8-8.6-7.8-17-9.5-28.6c-1.1-7.7-14-3.6-11.7,3.9
		C78,40.8,81.5,50.2,85,59.6c-4.3,2.2-8.3,4.7-12,7.7c-4.3-7.1-8.7-14.2-17.6-20.7c-6.3-4.6-15.2,1.7-9.8,7.4
		c7.8,8.5,13.3,12.5,19.1,21.4c-2.5,3-4.8,6.2-6.9,9.8c-8.4,14.3-13.4,27.9-13.5,46.6c2.4,6.8,14,4.7,14.5-1.7
		c0.6-14.2,5-24.4,11.8-37.1c10.9-18.2,29.7-26.6,46.8-30.3c19-4.1,40.3,3.9,53.9,19.1c9.8,11,17.3,20.7,21.2,34.3
		c1.9,6.4,11.1,5.1,10.7-1.2c-4.5-18.2-11.8-26.8-23.8-42.2c-1.8-1.9-3.6-3.6-5.5-5.2c6.3-14.7,8.7-17.2,14.3-27.2
		c3.8-6.9-8.1-12.5-11.1-5.3l-11.4,26.4c-5-3.2-10.3-5.6-15.9-7.4c0.7-9.5,2.2-15.8,7.6-30.2c1.8-7.6-10.2-10.3-12-2.7l-7.2,30.2
		c-4.6-0.6-9.4-0.9-14.4-0.7c-2.7-11.8-1.5-18.6-2-31c-0.3-7.8-11-6.1-12.2,1.6C107.2,33.5,109.9,42.4,112.1,51.7L112.1,51.7z
		 M105.2,99c6.6-4.9,23.1-5.5,30.5-2c3.6,1.5,5.6,4.4,5.9,7.2c0.7,5.6-8,12.1-19.4,13.4c-6.2,0.7-11.2-0.6-15.1-2.3
		c-3.3-1.7-5.1-3.9-5.4-6.5C101.4,106.1,102.4,101.3,105.2,99z"/>
</g>
</svg>
