<?xml version="1.0" encoding="utf-8"?>
<!-- Generator: Adobe Illustrator 18.1.1, SVG Export Plug-In . SVG Version: 6.00 Build 0)  -->
<svg version="1.1" id="Eye" xmlns="http://www.w3.org/2000/svg" xmlns:xlink="http://www.w3.org/1999/xlink" x="0px" y="0px"
	 width="180px" height="180px" viewBox="0 0 180 180" enable-background="new 0 0 180 180" xml:space="preserve">
<path fill="#FAA419" d="M80.1,56.4c-5.7,0.8-11,2-16,3.5c-3.8-8.6-7.8-17-9.5-28.6c-1.1-7.7-14-3.6-11.7,3.9
	C46,45.6,49.5,54.9,53,64.4c-4.3,2.2-8.3,4.7-12,7.7c-4.3-7.1-8.7-14.2-17.6-20.7c-6.3-4.6-15.2,1.7-9.8,7.4
	c7.8,8.5,13.3,12.5,19.1,21.4c-2.5,3-4.8,6.2-6.9,9.8c-8.4,14.3-13.4,27.9-13.5,46.6c2.4,6.8,14,4.7,14.5-1.7
	c0.6-14.2,5-24.4,11.8-37.1c10.9-18.2,29.7-26.6,46.8-30.3c19-4.1,40.3,3.9,53.9,19.1c9.8,11,17.3,20.7,21.2,34.3
	c1.9,6.4,11.1,5.1,10.7-1.2c-4.5-18.2-11.8-26.8-23.8-42.2c-1.8-1.9-3.6-3.6-5.5-5.2c6.3-14.7,8.7-17.2,14.3-27.2
	c3.8-6.9-8.1-12.5-11.1-5.3L133.4,66c-5-3.2-10.3-5.6-15.9-7.4c0.7-9.5,2.2-15.8,7.6-30.2c1.8-7.6-10.2-10.3-12-2.7l-7.2,30.2
	c-4.6-0.6-9.4-0.9-14.4-0.7c-2.7-11.8-1.5-18.6-2-31c-0.3-7.8-11-6.1-12.2,1.6C75.2,38.3,77.9,47.2,80.1,56.4L80.1,56.4z
	 M73.2,103.7c6.6-4.9,23.1-5.5,30.5-2c3.6,1.5,5.6,4.4,5.9,7.2c0.7,5.6-8,12.1-19.4,13.4c-6.2,0.7-11.2-0.6-15.1-2.3
	c-3.3-1.7-5.1-3.9-5.4-6.5C69.4,110.8,70.4,106,73.2,103.7z"/>
</svg>
